// Jest Snapshot v1, https://goo.gl/fbAQLP

exports[`renders the Time component 1`] = `
<div
  class="sc-htpNat esntTN sc-bdVaJa dQdFv"
>
  <span
    class="sc-ifAKCX iIXNus"
  >
    10:10
  </span>
  <span
    class="sc-EHOje eqxOMV"
  >
    am
  </span>
</div>
`;
